{"page":1,"per_page":6,"total":14261,"total_pages":2377,"data":[{"id":49,"flightName":"AirIndia","country":"India","destinations":"85","url":"https:\\/\\/en.wikipedia.org\\/wiki\\/Air_India"},{"id":481,"flightName":"Lufthansa","country":"India","destinations":"87","url":"https:\\/\\/en.wikipedia.org\\/wiki\\/Air_India"},{"id":516,"flightName":"AIR CANADA","country":"India","destinations":"19","url":"https:\\/\\/en.wikipedia.org\\/wiki\\/Air_India"},{"id":548,"flightName":"AirIndia","country":"India","destinations":"87","url":"https:\\/\\/en.wikipedia.org\\/wiki\\/Air_India"},{"id":557,"flightName":"AirIndia","country":"India","destinations":"87","url":"https:\\/\\/en.wikipedia.org\\/wiki\\/Air_India"},{"id":561,"flightName":"AirIndia","country":"India","destinations":"87","url":"https:\\/\\/en.wikipedia.org\\/wiki\\/Air_India"}],"support":{"url":"https:\\/\\/www.omrbranch.com","text":"For Joining Automation Course, Please Contact-Velmurugan 9944152058"}}